testbench/teste resultados/test result tb_InstructionMemory.txt
[18] word_index=17 addr=0x0000000000000044  instr=0x00000000
[19] word_index=18 addr=0x0000000000000048  instr=0x00000000
[20] word_index=19 addr=0x000000000000004c  instr=0x00000000
[21] word_index=20 addr=0x0000000000000050  instr=0x00000000
[22] word_index=21 addr=0x0000000000000054  instr=0x00000000
[23] word_index=22 addr=0x0000000000000058  instr=0x00000000
[24] word_index=23 addr=0x000000000000005c  instr=0x00000000
[25] word_index=24 addr=0x0000000000000060  instr=0x00000000
[26] word_index=25 addr=0x0000000000000064  instr=0x00000000
[27] word_index=26 addr=0x0000000000000068  instr=0x00000000
[28] word_index=27 addr=0x000000000000006c  instr=0x00000000
[29] word_index=28 addr=0x0000000000000070  instr=0x00000000
[30] word_index=29 addr=0x0000000000000074  instr=0x00000000
[31] word_index=30 addr=0x0000000000000078  instr=0x00000000
[32] word_index=31 addr=0x000000000000007c  instr=0x00000000
[33] word_index=32 addr=0x0000000000000080  instr=0x00000000
[34] word_index=33 addr=0x0000000000000084  instr=0x00000000
[35] word_index=34 addr=0x0000000000000088  instr=0x00000000
[36] word_index=35 addr=0x000000000000008c  instr=0x00000000
[37] word_index=36 addr=0x0000000000000090  instr=0x00000000
[38] word_index=37 addr=0x0000000000000094  instr=0x00000000
[39] word_index=38 addr=0x0000000000000098  instr=0x00000000
[40] word_index=39 addr=0x000000000000009c  instr=0x00000000
[41] word_index=40 addr=0x00000000000000a0  instr=0x00000000
[42] word_index=41 addr=0x00000000000000a4  instr=0x00000000
[43] word_index=42 addr=0x00000000000000a8  instr=0x00000000
[44] word_index=43 addr=0x00000000000000ac  instr=0x00000000
[45] word_index=44 addr=0x00000000000000b0  instr=0x00000000
[46] word_index=45 addr=0x00000000000000b4  instr=0x00000000
[47] word_index=46 addr=0x00000000000000b8  instr=0x00000000
[48] word_index=47 addr=0x00000000000000bc  instr=0x00000000
[49] word_index=48 addr=0x00000000000000c0  instr=0x00000000
[50] word_index=49 addr=0x00000000000000c4  instr=0x00000000
[51] word_index=50 addr=0x00000000000000c8  instr=0x00000000
[52] word_index=51 addr=0x00000000000000cc  instr=0x00000000
[53] word_index=52 addr=0x00000000000000d0  instr=0x00000000
[54] word_index=53 addr=0x00000000000000d4  instr=0x00000000
[55] word_index=54 addr=0x00000000000000d8  instr=0x00000000
[56] word_index=55 addr=0x00000000000000dc  instr=0x00000000
[57] word_index=56 addr=0x00000000000000e0  instr=0x00000000
[58] word_index=57 addr=0x00000000000000e4  instr=0x00000000
[59] word_index=58 addr=0x00000000000000e8  instr=0x00000000
[60] word_index=59 addr=0x00000000000000ec  instr=0x00000000
[61] word_index=60 addr=0x00000000000000f0  instr=0x00000000
[62] word_index=61 addr=0x00000000000000f4  instr=0x00000000
[63] word_index=62 addr=0x00000000000000f8  instr=0x00000000
[64] word_index=63 addr=0x00000000000000fc  instr=0x00000000
[65] word_index=64 addr=0x0000000000000100  instr=0x00000000
[66] word_index=65 addr=0x0000000000000104  instr=0x00000000
[67] word_index=66 addr=0x0000000000000108  instr=0x00000000
[68] word_index=67 addr=0x000000000000010c  instr=0x00000000
[69] word_index=68 addr=0x0000000000000110  instr=0x00000000
[70] word_index=69 addr=0x0000000000000114  instr=0x00000000
[71] word_index=70 addr=0x0000000000000118  instr=0x00000000
[72] word_index=71 addr=0x000000000000011c  instr=0x00000000
[73] word_index=72 addr=0x0000000000000120  instr=0x00000000
[74] word_index=73 addr=0x0000000000000124  instr=0x00000000
[75] word_index=74 addr=0x0000000000000128  instr=0x00000000
[76] word_index=75 addr=0x000000000000012c  instr=0x00000000
[77] word_index=76 addr=0x0000000000000130  instr=0x00000000
[78] word_index=77 addr=0x0000000000000134  instr=0x00000000
[79] word_index=78 addr=0x0000000000000138  instr=0x00000000
[80] word_index=79 addr=0x000000000000013c  instr=0x00000000
[81] word_index=80 addr=0x0000000000000140  instr=0x00000000
[82] word_index=81 addr=0x0000000000000144  instr=0x00000000
[83] word_index=82 addr=0x0000000000000148  instr=0x00000000
[84] word_index=83 addr=0x000000000000014c  instr=0x00000000
[85] word_index=84 addr=0x0000000000000150  instr=0x00000000
[86] word_index=85 addr=0x0000000000000154  instr=0x00000000
[87] word_index=86 addr=0x0000000000000158  instr=0x00000000
[88] word_index=87 addr=0x000000000000015c  instr=0x00000000
[89] word_index=88 addr=0x0000000000000160  instr=0x00000000
[90] word_index=89 addr=0x0000000000000164  instr=0x00000000
[91] word_index=90 addr=0x0000000000000168  instr=0x00000000
[92] word_index=91 addr=0x000000000000016c  instr=0x00000000
[93] word_index=92 addr=0x0000000000000170  instr=0x00000000
[94] word_index=93 addr=0x0000000000000174  instr=0x00000000
[95] word_index=94 addr=0x0000000000000178  instr=0x00000000
[96] word_index=95 addr=0x000000000000017c  instr=0x00000000
[97] word_index=96 addr=0x0000000000000180  instr=0x00000000
[98] word_index=97 addr=0x0000000000000184  instr=0x00000000
[99] word_index=98 addr=0x0000000000000188  instr=0x00000000
[100] word_index=99 addr=0x000000000000018c  instr=0x00000000
[101] word_index=100 addr=0x0000000000000190  instr=0x00000000
[102] word_index=101 addr=0x0000000000000194  instr=0x00000000
[103] word_index=102 addr=0x0000000000000198  instr=0x00000000
[104] word_index=103 addr=0x000000000000019c  instr=0x00000000
[105] word_index=104 addr=0x00000000000001a0  instr=0x00000000
[106] word_index=105 addr=0x00000000000001a4  instr=0x00000000
[107] word_index=106 addr=0x00000000000001a8  instr=0x00000000
[108] word_index=107 addr=0x00000000000001ac  instr=0x00000000
[109] word_index=108 addr=0x00000000000001b0  instr=0x00000000
[110] word_index=109 addr=0x00000000000001b4  instr=0x00000000
[111] word_index=110 addr=0x00000000000001b8  instr=0x00000000
[112] word_index=111 addr=0x00000000000001bc  instr=0x00000000
[113] word_index=112 addr=0x00000000000001c0  instr=0x00000000
[114] word_index=113 addr=0x00000000000001c4  instr=0x00000000
[115] word_index=114 addr=0x00000000000001c8  instr=0x00000000
[116] word_index=115 addr=0x00000000000001cc  instr=0x00000000
[117] word_index=116 addr=0x00000000000001d0  instr=0x00000000
[118] word_index=117 addr=0x00000000000001d4  instr=0x00000000
[119] word_index=118 addr=0x00000000000001d8  instr=0x00000000
[120] word_index=119 addr=0x00000000000001dc  instr=0x00000000
[121] word_index=120 addr=0x00000000000001e0  instr=0x00000000
[122] word_index=121 addr=0x00000000000001e4  instr=0x00000000
[123] word_index=122 addr=0x00000000000001e8  instr=0x00000000
[124] word_index=123 addr=0x00000000000001ec  instr=0x00000000
[125] word_index=124 addr=0x00000000000001f0  instr=0x00000000
[126] word_index=125 addr=0x00000000000001f4  instr=0x00000000
[127] word_index=126 addr=0x00000000000001f8  instr=0x00000000
[128] word_index=127 addr=0x00000000000001fc  instr=0x00000000
[129] word_index=128 addr=0x0000000000000200  instr=0x00000000
[130] word_index=129 addr=0x0000000000000204  instr=0x00000000
[131] word_index=130 addr=0x0000000000000208  instr=0x00000000
[132] word_index=131 addr=0x000000000000020c  instr=0x00000000
[133] word_index=132 addr=0x0000000000000210  instr=0x00000000
[134] word_index=133 addr=0x0000000000000214  instr=0x00000000
[135] word_index=134 addr=0x0000000000000218  instr=0x00000000
[136] word_index=135 addr=0x000000000000021c  instr=0x00000000
[137] word_index=136 addr=0x0000000000000220  instr=0x00000000
[138] word_index=137 addr=0x0000000000000224  instr=0x00000000
[139] word_index=138 addr=0x0000000000000228  instr=0x00000000
[140] word_index=139 addr=0x000000000000022c  instr=0x00000000
[141] word_index=140 addr=0x0000000000000230  instr=0x00000000
[142] word_index=141 addr=0x0000000000000234  instr=0x00000000
[143] word_index=142 addr=0x0000000000000238  instr=0x00000000
[144] word_index=143 addr=0x000000000000023c  instr=0x00000000
[145] word_index=144 addr=0x0000000000000240  instr=0x00000000
[146] word_index=145 addr=0x0000000000000244  instr=0x00000000
[147] word_index=146 addr=0x0000000000000248  instr=0x00000000
[148] word_index=147 addr=0x000000000000024c  instr=0x00000000
[149] word_index=148 addr=0x0000000000000250  instr=0x00000000
[150] word_index=149 addr=0x0000000000000254  instr=0x00000000
[151] word_index=150 addr=0x0000000000000258  instr=0x00000000
[152] word_index=151 addr=0x000000000000025c  instr=0x00000000
[153] word_index=152 addr=0x0000000000000260  instr=0x00000000
[154] word_index=153 addr=0x0000000000000264  instr=0x00000000
[155] word_index=154 addr=0x0000000000000268  instr=0x00000000
[156] word_index=155 addr=0x000000000000026c  instr=0x00000000
[157] word_index=156 addr=0x0000000000000270  instr=0x00000000
[158] word_index=157 addr=0x0000000000000274  instr=0x00000000
[159] word_index=158 addr=0x0000000000000278  instr=0x00000000
[160] word_index=159 addr=0x000000000000027c  instr=0x00000000
[161] word_index=160 addr=0x0000000000000280  instr=0x00000000
[162] word_index=161 addr=0x0000000000000284  instr=0x00000000
[163] word_index=162 addr=0x0000000000000288  instr=0x00000000
[164] word_index=163 addr=0x000000000000028c  instr=0x00000000
[165] word_index=164 addr=0x0000000000000290  instr=0x00000000
[166] word_index=165 addr=0x0000000000000294  instr=0x00000000
[167] word_index=166 addr=0x0000000000000298  instr=0x00000000
[168] word_index=167 addr=0x000000000000029c  instr=0x00000000
[169] word_index=168 addr=0x00000000000002a0  instr=0x00000000
[170] word_index=169 addr=0x00000000000002a4  instr=0x00000000
[171] word_index=170 addr=0x00000000000002a8  instr=0x00000000
[172] word_index=171 addr=0x00000000000002ac  instr=0x00000000
[173] word_index=172 addr=0x00000000000002b0  instr=0x00000000
[174] word_index=173 addr=0x00000000000002b4  instr=0x00000000
[175] word_index=174 addr=0x00000000000002b8  instr=0x00000000
[176] word_index=175 addr=0x00000000000002bc  instr=0x00000000
[177] word_index=176 addr=0x00000000000002c0  instr=0x00000000
[178] word_index=177 addr=0x00000000000002c4  instr=0x00000000
[179] word_index=178 addr=0x00000000000002c8  instr=0x00000000
[180] word_index=179 addr=0x00000000000002cc  instr=0x00000000
[181] word_index=180 addr=0x00000000000002d0  instr=0x00000000
[182] word_index=181 addr=0x00000000000002d4  instr=0x00000000
[183] word_index=182 addr=0x00000000000002d8  instr=0x00000000
[184] word_index=183 addr=0x00000000000002dc  instr=0x00000000
[185] word_index=184 addr=0x00000000000002e0  instr=0x00000000
[186] word_index=185 addr=0x00000000000002e4  instr=0x00000000
[187] word_index=186 addr=0x00000000000002e8  instr=0x00000000
[188] word_index=187 addr=0x00000000000002ec  instr=0x00000000
[189] word_index=188 addr=0x00000000000002f0  instr=0x00000000
[190] word_index=189 addr=0x00000000000002f4  instr=0x00000000
[191] word_index=190 addr=0x00000000000002f8  instr=0x00000000
[192] word_index=191 addr=0x00000000000002fc  instr=0x00000000
[193] word_index=192 addr=0x0000000000000300  instr=0x00000000
[194] word_index=193 addr=0x0000000000000304  instr=0x00000000
[195] word_index=194 addr=0x0000000000000308  instr=0x00000000
[196] word_index=195 addr=0x000000000000030c  instr=0x00000000
[197] word_index=196 addr=0x0000000000000310  instr=0x00000000
[198] word_index=197 addr=0x0000000000000314  instr=0x00000000
[199] word_index=198 addr=0x0000000000000318  instr=0x00000000
[200] word_index=199 addr=0x000000000000031c  instr=0x00000000
[201] word_index=200 addr=0x0000000000000320  instr=0x00000000
[202] word_index=201 addr=0x0000000000000324  instr=0x00000000
[203] word_index=202 addr=0x0000000000000328  instr=0x00000000
[204] word_index=203 addr=0x000000000000032c  instr=0x00000000
[205] word_index=204 addr=0x0000000000000330  instr=0x00000000
[206] word_index=205 addr=0x0000000000000334  instr=0x00000000
[207] word_index=206 addr=0x0000000000000338  instr=0x00000000
[208] word_index=207 addr=0x000000000000033c  instr=0x00000000
[209] word_index=208 addr=0x0000000000000340  instr=0x00000000
[210] word_index=209 addr=0x0000000000000344  instr=0x00000000
[211] word_index=210 addr=0x0000000000000348  instr=0x00000000
[212] word_index=211 addr=0x000000000000034c  instr=0x00000000
[213] word_index=212 addr=0x0000000000000350  instr=0x00000000
[214] word_index=213 addr=0x0000000000000354  instr=0x00000000
[215] word_index=214 addr=0x0000000000000358  instr=0x00000000
[216] word_index=215 addr=0x000000000000035c  instr=0x00000000
[217] word_index=216 addr=0x0000000000000360  instr=0x00000000
[218] word_index=217 addr=0x0000000000000364  instr=0x00000000
[219] word_index=218 addr=0x0000000000000368  instr=0x00000000
[220] word_index=219 addr=0x000000000000036c  instr=0x00000000
[221] word_index=220 addr=0x0000000000000370  instr=0x00000000
[222] word_index=221 addr=0x0000000000000374  instr=0x00000000
[223] word_index=222 addr=0x0000000000000378  instr=0x00000000
[224] word_index=223 addr=0x000000000000037c  instr=0x00000000
[225] word_index=224 addr=0x0000000000000380  instr=0x00000000
[226] word_index=225 addr=0x0000000000000384  instr=0x00000000
[227] word_index=226 addr=0x0000000000000388  instr=0x00000000
[228] word_index=227 addr=0x000000000000038c  instr=0x00000000
[229] word_index=228 addr=0x0000000000000390  instr=0x00000000
[230] word_index=229 addr=0x0000000000000394  instr=0x00000000
[231] word_index=230 addr=0x0000000000000398  instr=0x00000000
[232] word_index=231 addr=0x000000000000039c  instr=0x00000000
[233] word_index=232 addr=0x00000000000003a0  instr=0x00000000
[234] word_index=233 addr=0x00000000000003a4  instr=0x00000000
[235] word_index=234 addr=0x00000000000003a8  instr=0x00000000
[236] word_index=235 addr=0x00000000000003ac  instr=0x00000000
[237] word_index=236 addr=0x00000000000003b0  instr=0x00000000
[238] word_index=237 addr=0x00000000000003b4  instr=0x00000000
[239] word_index=238 addr=0x00000000000003b8  instr=0x00000000
[240] word_index=239 addr=0x00000000000003bc  instr=0x00000000
[241] word_index=240 addr=0x00000000000003c0  instr=0x00000000
[242] word_index=241 addr=0x00000000000003c4  instr=0x00000000
[243] word_index=242 addr=0x00000000000003c8  instr=0x00000000
[244] word_index=243 addr=0x00000000000003cc  instr=0x00000000
[245] word_index=244 addr=0x00000000000003d0  instr=0x00000000
[246] word_index=245 addr=0x00000000000003d4  instr=0x00000000
[247] word_index=246 addr=0x00000000000003d8  instr=0x00000000
[248] word_index=247 addr=0x00000000000003dc  instr=0x00000000
[249] word_index=248 addr=0x00000000000003e0  instr=0x00000000
[250] word_index=249 addr=0x00000000000003e4  instr=0x00000000
[251] word_index=250 addr=0x00000000000003e8  instr=0x00000000
[252] word_index=251 addr=0x00000000000003ec  instr=0x00000000
[253] word_index=252 addr=0x00000000000003f0  instr=0x00000000
[254] word_index=253 addr=0x00000000000003f4  instr=0x00000000
[255] word_index=254 addr=0x00000000000003f8  instr=0x00000000
[256] word_index=255 addr=0x00000000000003fc  instr=0x00000000
[257] word_index=256 addr=0x0000000000000400  instr=0x00000000
[258] word_index=257 addr=0x0000000000000404  instr=0x00000000
[259] word_index=258 addr=0x0000000000000408  instr=0x00000000
[260] word_index=259 addr=0x000000000000040c  instr=0x00000000
[261] word_index=260 addr=0x0000000000000410  instr=0x00000000
[262] word_index=261 addr=0x0000000000000414  instr=0x00000000
[263] word_index=262 addr=0x0000000000000418  instr=0x00000000
[264] word_index=263 addr=0x000000000000041c  instr=0x00000000
[265] word_index=264 addr=0x0000000000000420  instr=0x00000000
[266] word_index=265 addr=0x0000000000000424  instr=0x00000000
[267] word_index=266 addr=0x0000000000000428  instr=0x00000000
[268] word_index=267 addr=0x000000000000042c  instr=0x00000000
[269] word_index=268 addr=0x0000000000000430  instr=0x00000000
[270] word_index=269 addr=0x0000000000000434  instr=0x00000000
[271] word_index=270 addr=0x0000000000000438  instr=0x00000000
[272] word_index=271 addr=0x000000000000043c  instr=0x00000000
[273] word_index=272 addr=0x0000000000000440  instr=0x00000000
[274] word_index=273 addr=0x0000000000000444  instr=0x00000000
[275] word_index=274 addr=0x0000000000000448  instr=0x00000000
[276] word_index=275 addr=0x000000000000044c  instr=0x00000000
[277] word_index=276 addr=0x0000000000000450  instr=0x00000000
[278] word_index=277 addr=0x0000000000000454  instr=0x00000000
[279] word_index=278 addr=0x0000000000000458  instr=0x00000000
[280] word_index=279 addr=0x000000000000045c  instr=0x00000000
[281] word_index=280 addr=0x0000000000000460  instr=0x00000000
[282] word_index=281 addr=0x0000000000000464  instr=0x00000000
[283] word_index=282 addr=0x0000000000000468  instr=0x00000000
[284] word_index=283 addr=0x000000000000046c  instr=0x00000000
[285] word_index=284 addr=0x0000000000000470  instr=0x00000000
[286] word_index=285 addr=0x0000000000000474  instr=0x00000000
[287] word_index=286 addr=0x0000000000000478  instr=0x00000000
[288] word_index=287 addr=0x000000000000047c  instr=0x00000000
[289] word_index=288 addr=0x0000000000000480  instr=0x00000000
[290] word_index=289 addr=0x0000000000000484  instr=0x00000000
[291] word_index=290 addr=0x0000000000000488  instr=0x00000000
[292] word_index=291 addr=0x000000000000048c  instr=0x00000000
[293] word_index=292 addr=0x0000000000000490  instr=0x00000000
[294] word_index=293 addr=0x0000000000000494  instr=0x00000000
[295] word_index=294 addr=0x0000000000000498  instr=0x00000000
[296] word_index=295 addr=0x000000000000049c  instr=0x00000000
[297] word_index=296 addr=0x00000000000004a0  instr=0x00000000
[298] word_index=297 addr=0x00000000000004a4  instr=0x00000000
[299] word_index=298 addr=0x00000000000004a8  instr=0x00000000
[300] word_index=299 addr=0x00000000000004ac  instr=0x00000000
[301] word_index=300 addr=0x00000000000004b0  instr=0x00000000
[302] word_index=301 addr=0x00000000000004b4  instr=0x00000000
[303] word_index=302 addr=0x00000000000004b8  instr=0x00000000
[304] word_index=303 addr=0x00000000000004bc  instr=0x00000000
[305] word_index=304 addr=0x00000000000004c0  instr=0x00000000
[306] word_index=305 addr=0x00000000000004c4  instr=0x00000000
[307] word_index=306 addr=0x00000000000004c8  instr=0x00000000
[308] word_index=307 addr=0x00000000000004cc  instr=0x00000000
[309] word_index=308 addr=0x00000000000004d0  instr=0x00000000
[310] word_index=309 addr=0x00000000000004d4  instr=0x00000000
[311] word_index=310 addr=0x00000000000004d8  instr=0x00000000
[312] word_index=311 addr=0x00000000000004dc  instr=0x00000000
[313] word_index=312 addr=0x00000000000004e0  instr=0x00000000
[314] word_index=313 addr=0x00000000000004e4  instr=0x00000000
[315] word_index=314 addr=0x00000000000004e8  instr=0x00000000
[316] word_index=315 addr=0x00000000000004ec  instr=0x00000000
[317] word_index=316 addr=0x00000000000004f0  instr=0x00000000
[318] word_index=317 addr=0x00000000000004f4  instr=0x00000000
[319] word_index=318 addr=0x00000000000004f8  instr=0x00000000
[320] word_index=319 addr=0x00000000000004fc  instr=0x00000000
[321] word_index=320 addr=0x0000000000000500  instr=0x00000000
[322] word_index=321 addr=0x0000000000000504  instr=0x00000000
[323] word_index=322 addr=0x0000000000000508  instr=0x00000000
[324] word_index=323 addr=0x000000000000050c  instr=0x00000000
[325] word_index=324 addr=0x0000000000000510  instr=0x00000000
[326] word_index=325 addr=0x0000000000000514  instr=0x00000000
[327] word_index=326 addr=0x0000000000000518  instr=0x00000000
[328] word_index=327 addr=0x000000000000051c  instr=0x00000000
[329] word_index=328 addr=0x0000000000000520  instr=0x00000000
[330] word_index=329 addr=0x0000000000000524  instr=0x00000000
[331] word_index=330 addr=0x0000000000000528  instr=0x00000000
[332] word_index=331 addr=0x000000000000052c  instr=0x00000000
[333] word_index=332 addr=0x0000000000000530  instr=0x00000000
[334] word_index=333 addr=0x0000000000000534  instr=0x00000000
[335] word_index=334 addr=0x0000000000000538  instr=0x00000000
[336] word_index=335 addr=0x000000000000053c  instr=0x00000000
[337] word_index=336 addr=0x0000000000000540  instr=0x00000000
[338] word_index=337 addr=0x0000000000000544  instr=0x00000000
[339] word_index=338 addr=0x0000000000000548  instr=0x00000000
[340] word_index=339 addr=0x000000000000054c  instr=0x00000000
[341] word_index=340 addr=0x0000000000000550  instr=0x00000000
[342] word_index=341 addr=0x0000000000000554  instr=0x00000000
[343] word_index=342 addr=0x0000000000000558  instr=0x00000000
[344] word_index=343 addr=0x000000000000055c  instr=0x00000000
[345] word_index=344 addr=0x0000000000000560  instr=0x00000000
[346] word_index=345 addr=0x0000000000000564  instr=0x00000000
[347] word_index=346 addr=0x0000000000000568  instr=0x00000000
[348] word_index=347 addr=0x000000000000056c  instr=0x00000000
[349] word_index=348 addr=0x0000000000000570  instr=0x00000000
[350] word_index=349 addr=0x0000000000000574  instr=0x00000000
[351] word_index=350 addr=0x0000000000000578  instr=0x00000000
[352] word_index=351 addr=0x000000000000057c  instr=0x00000000
[353] word_index=352 addr=0x0000000000000580  instr=0x00000000
[354] word_index=353 addr=0x0000000000000584  instr=0x00000000
[355] word_index=354 addr=0x0000000000000588  instr=0x00000000
[356] word_index=355 addr=0x000000000000058c  instr=0x00000000
[357] word_index=356 addr=0x0000000000000590  instr=0x00000000
[358] word_index=357 addr=0x0000000000000594  instr=0x00000000
[359] word_index=358 addr=0x0000000000000598  instr=0x00000000
[360] word_index=359 addr=0x000000000000059c  instr=0x00000000
[361] word_index=360 addr=0x00000000000005a0  instr=0x00000000
[362] word_index=361 addr=0x00000000000005a4  instr=0x00000000
[363] word_index=362 addr=0x00000000000005a8  instr=0x00000000
[364] word_index=363 addr=0x00000000000005ac  instr=0x00000000
[365] word_index=364 addr=0x00000000000005b0  instr=0x00000000
[366] word_index=365 addr=0x00000000000005b4  instr=0x00000000
[367] word_index=366 addr=0x00000000000005b8  instr=0x00000000
[368] word_index=367 addr=0x00000000000005bc  instr=0x00000000
[369] word_index=368 addr=0x00000000000005c0  instr=0x00000000
[370] word_index=369 addr=0x00000000000005c4  instr=0x00000000
[371] word_index=370 addr=0x00000000000005c8  instr=0x00000000
[372] word_index=371 addr=0x00000000000005cc  instr=0x00000000
[373] word_index=372 addr=0x00000000000005d0  instr=0x00000000
[374] word_index=373 addr=0x00000000000005d4  instr=0x00000000
[375] word_index=374 addr=0x00000000000005d8  instr=0x00000000
[376] word_index=375 addr=0x00000000000005dc  instr=0x00000000
[377] word_index=376 addr=0x00000000000005e0  instr=0x00000000
[378] word_index=377 addr=0x00000000000005e4  instr=0x00000000
[379] word_index=378 addr=0x00000000000005e8  instr=0x00000000
[380] word_index=379 addr=0x00000000000005ec  instr=0x00000000
[381] word_index=380 addr=0x00000000000005f0  instr=0x00000000
[382] word_index=381 addr=0x00000000000005f4  instr=0x00000000
[383] word_index=382 addr=0x00000000000005f8  instr=0x00000000
[384] word_index=383 addr=0x00000000000005fc  instr=0x00000000
[385] word_index=384 addr=0x0000000000000600  instr=0x00000000
[386] word_index=385 addr=0x0000000000000604  instr=0x00000000
[387] word_index=386 addr=0x0000000000000608  instr=0x00000000
[388] word_index=387 addr=0x000000000000060c  instr=0x00000000
[389] word_index=388 addr=0x0000000000000610  instr=0x00000000
[390] word_index=389 addr=0x0000000000000614  instr=0x00000000
[391] word_index=390 addr=0x0000000000000618  instr=0x00000000
[392] word_index=391 addr=0x000000000000061c  instr=0x00000000
[393] word_index=392 addr=0x0000000000000620  instr=0x00000000
[394] word_index=393 addr=0x0000000000000624  instr=0x00000000
[395] word_index=394 addr=0x0000000000000628  instr=0x00000000
[396] word_index=395 addr=0x000000000000062c  instr=0x00000000
[397] word_index=396 addr=0x0000000000000630  instr=0x00000000
[398] word_index=397 addr=0x0000000000000634  instr=0x00000000
[399] word_index=398 addr=0x0000000000000638  instr=0x00000000
[400] word_index=399 addr=0x000000000000063c  instr=0x00000000
[401] word_index=400 addr=0x0000000000000640  instr=0x00000000
[402] word_index=401 addr=0x0000000000000644  instr=0x00000000
[403] word_index=402 addr=0x0000000000000648  instr=0x00000000
[404] word_index=403 addr=0x000000000000064c  instr=0x00000000
[405] word_index=404 addr=0x0000000000000650  instr=0x00000000
[406] word_index=405 addr=0x0000000000000654  instr=0x00000000
[407] word_index=406 addr=0x0000000000000658  instr=0x00000000
[408] word_index=407 addr=0x000000000000065c  instr=0x00000000
[409] word_index=408 addr=0x0000000000000660  instr=0x00000000
[410] word_index=409 addr=0x0000000000000664  instr=0x00000000
[411] word_index=410 addr=0x0000000000000668  instr=0x00000000
[412] word_index=411 addr=0x000000000000066c  instr=0x00000000
[413] word_index=412 addr=0x0000000000000670  instr=0x00000000
[414] word_index=413 addr=0x0000000000000674  instr=0x00000000
[415] word_index=414 addr=0x0000000000000678  instr=0x00000000
[416] word_index=415 addr=0x000000000000067c  instr=0x00000000
[417] word_index=416 addr=0x0000000000000680  instr=0x00000000
[418] word_index=417 addr=0x0000000000000684  instr=0x00000000
[419] word_index=418 addr=0x0000000000000688  instr=0x00000000
[420] word_index=419 addr=0x000000000000068c  instr=0x00000000
[421] word_index=420 addr=0x0000000000000690  instr=0x00000000
[422] word_index=421 addr=0x0000000000000694  instr=0x00000000
[423] word_index=422 addr=0x0000000000000698  instr=0x00000000
[424] word_index=423 addr=0x000000000000069c  instr=0x00000000
[425] word_index=424 addr=0x00000000000006a0  instr=0x00000000
[426] word_index=425 addr=0x00000000000006a4  instr=0x00000000
[427] word_index=426 addr=0x00000000000006a8  instr=0x00000000
[428] word_index=427 addr=0x00000000000006ac  instr=0x00000000
[429] word_index=428 addr=0x00000000000006b0  instr=0x00000000
[430] word_index=429 addr=0x00000000000006b4  instr=0x00000000
[431] word_index=430 addr=0x00000000000006b8  instr=0x00000000
[432] word_index=431 addr=0x00000000000006bc  instr=0x00000000
[433] word_index=432 addr=0x00000000000006c0  instr=0x00000000
[434] word_index=433 addr=0x00000000000006c4  instr=0x00000000
[435] word_index=434 addr=0x00000000000006c8  instr=0x00000000
[436] word_index=435 addr=0x00000000000006cc  instr=0x00000000
[437] word_index=436 addr=0x00000000000006d0  instr=0x00000000
[438] word_index=437 addr=0x00000000000006d4  instr=0x00000000
[439] word_index=438 addr=0x00000000000006d8  instr=0x00000000
[440] word_index=439 addr=0x00000000000006dc  instr=0x00000000
[441] word_index=440 addr=0x00000000000006e0  instr=0x00000000
[442] word_index=441 addr=0x00000000000006e4  instr=0x00000000
[443] word_index=442 addr=0x00000000000006e8  instr=0x00000000
[444] word_index=443 addr=0x00000000000006ec  instr=0x00000000
[445] word_index=444 addr=0x00000000000006f0  instr=0x00000000
[446] word_index=445 addr=0x00000000000006f4  instr=0x00000000
[447] word_index=446 addr=0x00000000000006f8  instr=0x00000000
[448] word_index=447 addr=0x00000000000006fc  instr=0x00000000
[449] word_index=448 addr=0x0000000000000700  instr=0x00000000
[450] word_index=449 addr=0x0000000000000704  instr=0x00000000
[451] word_index=450 addr=0x0000000000000708  instr=0x00000000
[452] word_index=451 addr=0x000000000000070c  instr=0x00000000
[453] word_index=452 addr=0x0000000000000710  instr=0x00000000
[454] word_index=453 addr=0x0000000000000714  instr=0x00000000
[455] word_index=454 addr=0x0000000000000718  instr=0x00000000
[456] word_index=455 addr=0x000000000000071c  instr=0x00000000
[457] word_index=456 addr=0x0000000000000720  instr=0x00000000
[458] word_index=457 addr=0x0000000000000724  instr=0x00000000
[459] word_index=458 addr=0x0000000000000728  instr=0x00000000
[460] word_index=459 addr=0x000000000000072c  instr=0x00000000
[461] word_index=460 addr=0x0000000000000730  instr=0x00000000
[462] word_index=461 addr=0x0000000000000734  instr=0x00000000
[463] word_index=462 addr=0x0000000000000738  instr=0x00000000
[464] word_index=463 addr=0x000000000000073c  instr=0x00000000
[465] word_index=464 addr=0x0000000000000740  instr=0x00000000
[466] word_index=465 addr=0x0000000000000744  instr=0x00000000
[467] word_index=466 addr=0x0000000000000748  instr=0x00000000
[468] word_index=467 addr=0x000000000000074c  instr=0x00000000
[469] word_index=468 addr=0x0000000000000750  instr=0x00000000
[470] word_index=469 addr=0x0000000000000754  instr=0x00000000
[471] word_index=470 addr=0x0000000000000758  instr=0x00000000
[472] word_index=471 addr=0x000000000000075c  instr=0x00000000
[473] word_index=472 addr=0x0000000000000760  instr=0x00000000
[474] word_index=473 addr=0x0000000000000764  instr=0x00000000
[475] word_index=474 addr=0x0000000000000768  instr=0x00000000
[476] word_index=475 addr=0x000000000000076c  instr=0x00000000
[477] word_index=476 addr=0x0000000000000770  instr=0x00000000
[478] word_index=477 addr=0x0000000000000774  instr=0x00000000
[479] word_index=478 addr=0x0000000000000778  instr=0x00000000
[480] word_index=479 addr=0x000000000000077c  instr=0x00000000
[481] word_index=480 addr=0x0000000000000780  instr=0x00000000
[482] word_index=481 addr=0x0000000000000784  instr=0x00000000
[483] word_index=482 addr=0x0000000000000788  instr=0x00000000
[484] word_index=483 addr=0x000000000000078c  instr=0x00000000
[485] word_index=484 addr=0x0000000000000790  instr=0x00000000
[486] word_index=485 addr=0x0000000000000794  instr=0x00000000
[487] word_index=486 addr=0x0000000000000798  instr=0x00000000
[488] word_index=487 addr=0x000000000000079c  instr=0x00000000
[489] word_index=488 addr=0x00000000000007a0  instr=0x00000000
[490] word_index=489 addr=0x00000000000007a4  instr=0x00000000
[491] word_index=490 addr=0x00000000000007a8  instr=0x00000000
[492] word_index=491 addr=0x00000000000007ac  instr=0x00000000
[493] word_index=492 addr=0x00000000000007b0  instr=0x00000000
[494] word_index=493 addr=0x00000000000007b4  instr=0x00000000
[495] word_index=494 addr=0x00000000000007b8  instr=0x00000000
[496] word_index=495 addr=0x00000000000007bc  instr=0x00000000
[497] word_index=496 addr=0x00000000000007c0  instr=0x00000000
[498] word_index=497 addr=0x00000000000007c4  instr=0x00000000
[499] word_index=498 addr=0x00000000000007c8  instr=0x00000000
[500] word_index=499 addr=0x00000000000007cc  instr=0x00000000
[501] word_index=500 addr=0x00000000000007d0  instr=0x00000000
[502] word_index=501 addr=0x00000000000007d4  instr=0x00000000
[503] word_index=502 addr=0x00000000000007d8  instr=0x00000000
[504] word_index=503 addr=0x00000000000007dc  instr=0x00000000
[505] word_index=504 addr=0x00000000000007e0  instr=0x00000000
[506] word_index=505 addr=0x00000000000007e4  instr=0x00000000
[507] word_index=506 addr=0x00000000000007e8  instr=0x00000000
[508] word_index=507 addr=0x00000000000007ec  instr=0x00000000
[509] word_index=508 addr=0x00000000000007f0  instr=0x00000000
